<font>
  <info face="font" size="50" bold="0" italic="0" charset="" unicode="" stretchH="100" smooth="1" aa="1" padding="2,2,2,2" spacing="0,0" outline="0"/>
  <common lineHeight="235" base="175" scaleW="4088" scaleH="512" pages="1" packed="0"/>
  <pages>
    <page id="0" file="font@4x.png"/>
  </pages>
  <chars count="161">
    <char id="32" x="2" y="2" width="0" height="0" xoffset="0" yoffset="175" xadvance="31" page="0" chnl="15"/>
    <char id="33" x="2" y="4" width="32" height="139" xoffset="8" yoffset="37" xadvance="47" page="0" chnl="15"/>
    <char id="34" x="2" y="145" width="63" height="43" xoffset="8" yoffset="26" xadvance="77" page="0" chnl="15"/>
    <char id="35" x="36" y="2" width="120" height="139" xoffset="8" yoffset="37" xadvance="135" page="0" chnl="15"/>
    <char id="36" x="2" y="190" width="86" height="182" xoffset="8" yoffset="16" xadvance="101" page="0" chnl="15"/>
    <char id="37" x="90" y="143" width="157" height="144" xoffset="8" yoffset="34" xadvance="172" page="0" chnl="15"/>
    <char id="38" x="158" y="2" width="97" height="139" xoffset="8" yoffset="37" xadvance="112" page="0" chnl="15"/>
    <char id="39" x="2" y="374" width="27" height="43" xoffset="8" yoffset="26" xadvance="42" page="0" chnl="15"/>
    <char id="40" x="90" y="289" width="49" height="179" xoffset="8" yoffset="17" xadvance="64" page="0" chnl="15"/>
    <char id="41" x="141" y="289" width="49" height="179" xoffset="8" yoffset="17" xadvance="64" page="0" chnl="15"/>
    <char id="42" x="2" y="419" width="72" height="68" xoffset="8" yoffset="33" xadvance="86" page="0" chnl="15"/>
    <char id="43" x="192" y="289" width="81" height="80" xoffset="8" yoffset="66" xadvance="96" page="0" chnl="15"/>
    <char id="44" x="192" y="371" width="42" height="51" xoffset="8" yoffset="148" xadvance="56" page="0" chnl="15"/>
    <char id="45" x="31" y="374" width="51" height="22" xoffset="8" yoffset="96" xadvance="65" page="0" chnl="15"/>
    <char id="46" x="76" y="470" width="32" height="32" xoffset="8" yoffset="145" xadvance="47" page="0" chnl="15"/>
    <char id="47" x="257" y="2" width="67" height="188" xoffset="8" yoffset="13" xadvance="81" page="0" chnl="15"/>
    <char id="48" x="236" y="371" width="91" height="139" xoffset="8" yoffset="37" xadvance="106" page="0" chnl="15"/>
    <char id="49" x="275" y="192" width="54" height="139" xoffset="8" yoffset="37" xadvance="68" page="0" chnl="15"/>
    <char id="50" x="329" y="333" width="81" height="139" xoffset="8" yoffset="37" xadvance="96" page="0" chnl="15"/>
    <char id="51" x="326" y="2" width="82" height="139" xoffset="8" yoffset="37" xadvance="97" page="0" chnl="15"/>
    <char id="52" x="331" y="143" width="93" height="139" xoffset="8" yoffset="37" xadvance="107" page="0" chnl="15"/>
    <char id="53" x="410" y="2" width="81" height="139" xoffset="8" yoffset="37" xadvance="96" page="0" chnl="15"/>
    <char id="54" x="412" y="284" width="88" height="139" xoffset="8" yoffset="37" xadvance="103" page="0" chnl="15"/>
    <char id="55" x="426" y="143" width="81" height="139" xoffset="8" yoffset="37" xadvance="96" page="0" chnl="15"/>
    <char id="56" x="493" y="2" width="90" height="139" xoffset="8" yoffset="37" xadvance="105" page="0" chnl="15"/>
    <char id="57" x="502" y="284" width="88" height="139" xoffset="8" yoffset="37" xadvance="103" page="0" chnl="15"/>
    <char id="58" x="509" y="143" width="32" height="111" xoffset="8" yoffset="65" xadvance="47" page="0" chnl="15"/>
    <char id="59" x="543" y="143" width="42" height="133" xoffset="-1" yoffset="65" xadvance="47" page="0" chnl="15"/>
    <char id="60" x="585" y="2" width="81" height="102" xoffset="8" yoffset="56" xadvance="96" page="0" chnl="15"/>
    <char id="61" x="412" y="425" width="70" height="61" xoffset="8" yoffset="76" xadvance="85" page="0" chnl="15"/>
    <char id="62" x="587" y="106" width="81" height="102" xoffset="8" yoffset="56" xadvance="96" page="0" chnl="15"/>
    <char id="63" x="592" y="210" width="74" height="139" xoffset="8" yoffset="37" xadvance="89" page="0" chnl="15"/>
    <char id="64" x="592" y="351" width="135" height="155" xoffset="8" yoffset="29" xadvance="150" page="0" chnl="15"/>
    <char id="65" x="668" y="210" width="104" height="139" xoffset="-2" yoffset="37" xadvance="100" page="0" chnl="15"/>
    <char id="66" x="729" y="351" width="92" height="139" xoffset="8" yoffset="37" xadvance="106" page="0" chnl="15"/>
    <char id="67" x="670" y="2" width="81" height="139" xoffset="8" yoffset="37" xadvance="96" page="0" chnl="15"/>
    <char id="68" x="753" y="2" width="91" height="139" xoffset="8" yoffset="37" xadvance="106" page="0" chnl="15"/>
    <char id="69" x="774" y="143" width="81" height="139" xoffset="8" yoffset="37" xadvance="96" page="0" chnl="15"/>
    <char id="70" x="846" y="2" width="81" height="139" xoffset="8" yoffset="37" xadvance="96" page="0" chnl="15"/>
    <char id="71" x="823" y="284" width="90" height="139" xoffset="8" yoffset="37" xadvance="105" page="0" chnl="15"/>
    <char id="72" x="857" y="143" width="91" height="139" xoffset="8" yoffset="37" xadvance="106" page="0" chnl="15"/>
    <char id="73" x="929" y="2" width="27" height="139" xoffset="8" yoffset="37" xadvance="42" page="0" chnl="15"/>
    <char id="74" x="915" y="284" width="71" height="139" xoffset="8" yoffset="37" xadvance="86" page="0" chnl="15"/>
    <char id="75" x="958" y="2" width="95" height="141" xoffset="8" yoffset="36" xadvance="109" page="0" chnl="15"/>
    <char id="76" x="988" y="145" width="81" height="139" xoffset="8" yoffset="37" xadvance="96" page="0" chnl="15"/>
    <char id="77" x="1055" y="2" width="128" height="139" xoffset="8" yoffset="37" xadvance="143" page="0" chnl="15"/>
    <char id="78" x="988" y="286" width="95" height="139" xoffset="8" yoffset="37" xadvance="110" page="0" chnl="15"/>
    <char id="79" x="1071" y="143" width="91" height="139" xoffset="8" yoffset="37" xadvance="106" page="0" chnl="15"/>
    <char id="80" x="1085" y="284" width="91" height="139" xoffset="8" yoffset="37" xadvance="106" page="0" chnl="15"/>
    <char id="81" x="1178" y="143" width="91" height="171" xoffset="8" yoffset="37" xadvance="106" page="0" chnl="15"/>
    <char id="82" x="1185" y="2" width="96" height="139" xoffset="8" yoffset="37" xadvance="110" page="0" chnl="15"/>
    <char id="83" x="1178" y="316" width="86" height="139" xoffset="8" yoffset="37" xadvance="101" page="0" chnl="15"/>
    <char id="84" x="1266" y="316" width="90" height="139" xoffset="8" yoffset="37" xadvance="105" page="0" chnl="15"/>
    <char id="85" x="1271" y="143" width="91" height="139" xoffset="8" yoffset="37" xadvance="106" page="0" chnl="15"/>
    <char id="86" x="1283" y="2" width="104" height="139" xoffset="-2" yoffset="37" xadvance="100" page="0" chnl="15"/>
    <char id="87" x="1358" y="284" width="168" height="139" xoffset="-1" yoffset="37" xadvance="165" page="0" chnl="15"/>
    <char id="88" x="1364" y="143" width="107" height="139" xoffset="8" yoffset="37" xadvance="121" page="0" chnl="15"/>
    <char id="89" x="1389" y="2" width="103" height="139" xoffset="-1" yoffset="37" xadvance="99" page="0" chnl="15"/>
    <char id="90" x="1473" y="143" width="81" height="139" xoffset="8" yoffset="37" xadvance="96" page="0" chnl="15"/>
    <char id="91" x="1528" y="284" width="52" height="188" xoffset="8" yoffset="13" xadvance="66" page="0" chnl="15"/>
    <char id="92" x="1556" y="2" width="67" height="188" xoffset="8" yoffset="13" xadvance="81" page="0" chnl="15"/>
    <char id="93" x="1582" y="192" width="52" height="188" xoffset="8" yoffset="13" xadvance="66" page="0" chnl="15"/>
    <char id="94" x="670" y="143" width="82" height="56" xoffset="8" yoffset="13" xadvance="96" page="0" chnl="15"/>
    <char id="95" x="729" y="492" width="71" height="18" xoffset="8" yoffset="193" xadvance="86" page="0" chnl="15"/>
    <char id="96" x="110" y="470" width="46" height="40" xoffset="8" yoffset="20" xadvance="61" page="0" chnl="15"/>
    <char id="97" x="1582" y="382" width="86" height="111" xoffset="8" yoffset="66" xadvance="101" page="0" chnl="15"/>
    <char id="98" x="1625" y="2" width="86" height="141" xoffset="8" yoffset="36" xadvance="101" page="0" chnl="15"/>
    <char id="99" x="1636" y="145" width="77" height="110" xoffset="8" yoffset="66" xadvance="92" page="0" chnl="15"/>
    <char id="100" x="1713" y="2" width="86" height="141" xoffset="8" yoffset="36" xadvance="101" page="0" chnl="15"/>
    <char id="101" x="1636" y="257" width="83" height="110" xoffset="8" yoffset="66" xadvance="98" page="0" chnl="15"/>
    <char id="102" x="1721" y="145" width="71" height="152" xoffset="8" yoffset="24" xadvance="86" page="0" chnl="15"/>
    <char id="103" x="1721" y="299" width="86" height="150" xoffset="8" yoffset="66" xadvance="101" page="0" chnl="15"/>
    <char id="104" x="1794" y="145" width="86" height="140" xoffset="8" yoffset="36" xadvance="101" page="0" chnl="15"/>
    <char id="105" x="1809" y="287" width="32" height="149" xoffset="8" yoffset="27" xadvance="47" page="0" chnl="15"/>
    <char id="106" x="1843" y="287" width="59" height="188" xoffset="-20" yoffset="27" xadvance="46" page="0" chnl="15"/>
    <char id="107" x="1801" y="2" width="90" height="140" xoffset="8" yoffset="37" xadvance="105" page="0" chnl="15"/>
    <char id="108" x="1670" y="369" width="27" height="140" xoffset="8" yoffset="36" xadvance="42" page="0" chnl="15"/>
    <char id="109" x="1882" y="144" width="135" height="111" xoffset="8" yoffset="65" xadvance="149" page="0" chnl="15"/>
    <char id="110" x="1893" y="2" width="86" height="111" xoffset="8" yoffset="65" xadvance="101" page="0" chnl="15"/>
    <char id="111" x="1981" y="2" width="86" height="110" xoffset="8" yoffset="66" xadvance="101" page="0" chnl="15"/>
    <char id="112" x="1904" y="257" width="86" height="141" xoffset="8" yoffset="65" xadvance="101" page="0" chnl="15"/>
    <char id="113" x="1992" y="257" width="86" height="141" xoffset="8" yoffset="65" xadvance="101" page="0" chnl="15"/>
    <char id="114" x="1904" y="400" width="67" height="110" xoffset="8" yoffset="66" xadvance="82" page="0" chnl="15"/>
    <char id="115" x="1973" y="400" width="81" height="110" xoffset="8" yoffset="66" xadvance="96" page="0" chnl="15"/>
    <char id="116" x="2019" y="114" width="71" height="140" xoffset="8" yoffset="36" xadvance="86" page="0" chnl="15"/>
    <char id="117" x="2080" y="256" width="86" height="111" xoffset="8" yoffset="65" xadvance="101" page="0" chnl="15"/>
    <char id="118" x="2069" y="2" width="91" height="110" xoffset="-1" yoffset="66" xadvance="88" page="0" chnl="15"/>
    <char id="119" x="2092" y="114" width="144" height="111" xoffset="-1" yoffset="65" xadvance="140" page="0" chnl="15"/>
    <char id="120" x="2080" y="369" width="92" height="112" xoffset="8" yoffset="65" xadvance="106" page="0" chnl="15"/>
    <char id="121" x="2174" y="227" width="86" height="151" xoffset="8" yoffset="65" xadvance="101" page="0" chnl="15"/>
    <char id="122" x="2162" y="2" width="76" height="110" xoffset="8" yoffset="66" xadvance="91" page="0" chnl="15"/>
    <char id="123" x="2240" y="2" width="71" height="188" xoffset="8" yoffset="13" xadvance="86" page="0" chnl="15"/>
    <char id="124" x="2262" y="192" width="26" height="188" xoffset="8" yoffset="13" xadvance="41" page="0" chnl="15"/>
    <char id="125" x="2290" y="192" width="71" height="188" xoffset="8" yoffset="13" xadvance="86" page="0" chnl="15"/>
    <char id="126" x="1699" y="477" width="77" height="32" xoffset="8" yoffset="87" xadvance="92" page="0" chnl="15"/>
    <char id="1040" x="2313" y="2" width="104" height="139" xoffset="-2" yoffset="37" xadvance="100" page="0" chnl="15"/>
    <char id="1041" x="2363" y="143" width="91" height="139" xoffset="8" yoffset="37" xadvance="106" page="0" chnl="15"/>
    <char id="1042" x="2419" y="2" width="92" height="139" xoffset="8" yoffset="37" xadvance="106" page="0" chnl="15"/>
    <char id="1043" x="2363" y="284" width="81" height="139" xoffset="8" yoffset="37" xadvance="96" page="0" chnl="15"/>
    <char id="1044" x="2446" y="284" width="105" height="159" xoffset="8" yoffset="37" xadvance="120" page="0" chnl="15"/>
    <char id="1045" x="2456" y="143" width="81" height="139" xoffset="8" yoffset="37" xadvance="96" page="0" chnl="15"/>
    <char id="1025" x="2539" y="2" width="81" height="173" xoffset="8" yoffset="3" xadvance="96" page="0" chnl="15"/>
    <char id="1046" x="2553" y="177" width="161" height="141" xoffset="8" yoffset="36" xadvance="175" page="0" chnl="15"/>
    <char id="1047" x="2622" y="2" width="82" height="139" xoffset="8" yoffset="37" xadvance="97" page="0" chnl="15"/>
    <char id="1048" x="2706" y="2" width="95" height="139" xoffset="8" yoffset="37" xadvance="110" page="0" chnl="15"/>
    <char id="1049" x="2553" y="320" width="95" height="176" xoffset="8" yoffset="0" xadvance="110" page="0" chnl="15"/>
    <char id="1050" x="2650" y="320" width="95" height="141" xoffset="8" yoffset="36" xadvance="109" page="0" chnl="15"/>
    <char id="1051" x="2716" y="143" width="104" height="139" xoffset="-2" yoffset="37" xadvance="100" page="0" chnl="15"/>
    <char id="1052" x="2803" y="2" width="128" height="139" xoffset="8" yoffset="37" xadvance="143" page="0" chnl="15"/>
    <char id="1053" x="2747" y="284" width="91" height="139" xoffset="8" yoffset="37" xadvance="106" page="0" chnl="15"/>
    <char id="1054" x="2822" y="143" width="91" height="139" xoffset="8" yoffset="37" xadvance="106" page="0" chnl="15"/>
    <char id="1055" x="2840" y="284" width="91" height="139" xoffset="8" yoffset="37" xadvance="106" page="0" chnl="15"/>
    <char id="1056" x="2915" y="143" width="91" height="139" xoffset="8" yoffset="37" xadvance="106" page="0" chnl="15"/>
    <char id="1057" x="2933" y="2" width="81" height="139" xoffset="8" yoffset="37" xadvance="96" page="0" chnl="15"/>
    <char id="1058" x="2933" y="284" width="90" height="139" xoffset="8" yoffset="37" xadvance="105" page="0" chnl="15"/>
    <char id="1059" x="3016" y="2" width="91" height="141" xoffset="8" yoffset="36" xadvance="106" page="0" chnl="15"/>
    <char id="1060" x="3025" y="145" width="118" height="139" xoffset="8" yoffset="37" xadvance="133" page="0" chnl="15"/>
    <char id="1061" x="3109" y="2" width="107" height="139" xoffset="8" yoffset="37" xadvance="121" page="0" chnl="15"/>
    <char id="1062" x="3025" y="286" width="99" height="159" xoffset="8" yoffset="37" xadvance="114" page="0" chnl="15"/>
    <char id="1063" x="3126" y="286" width="91" height="140" xoffset="8" yoffset="36" xadvance="106" page="0" chnl="15"/>
    <char id="1064" x="3145" y="143" width="135" height="139" xoffset="8" yoffset="37" xadvance="149" page="0" chnl="15"/>
    <char id="1065" x="3219" y="284" width="144" height="159" xoffset="8" yoffset="37" xadvance="159" page="0" chnl="15"/>
    <char id="1068" x="3218" y="2" width="125" height="139" xoffset="8" yoffset="37" xadvance="140" page="0" chnl="15"/>
    <char id="1067" x="3282" y="143" width="91" height="139" xoffset="8" yoffset="37" xadvance="106" page="0" chnl="15"/>
    <char id="1066" x="3365" y="284" width="107" height="140" xoffset="8" yoffset="36" xadvance="122" page="0" chnl="15"/>
    <char id="1069" x="3345" y="2" width="82" height="139" xoffset="8" yoffset="37" xadvance="97" page="0" chnl="15"/>
    <char id="1070" x="3375" y="143" width="135" height="139" xoffset="8" yoffset="37" xadvance="149" page="0" chnl="15"/>
    <char id="1071" x="3429" y="2" width="96" height="139" xoffset="8" yoffset="37" xadvance="110" page="0" chnl="15"/>
    <char id="1072" x="2174" y="380" width="86" height="111" xoffset="8" yoffset="66" xadvance="101" page="0" chnl="15"/>
    <char id="1073" x="3474" y="284" width="88" height="149" xoffset="8" yoffset="27" xadvance="103" page="0" chnl="15"/>
    <char id="1074" x="2262" y="382" width="87" height="111" xoffset="8" yoffset="65" xadvance="102" page="0" chnl="15"/>
    <char id="1075" x="3512" y="143" width="66" height="110" xoffset="8" yoffset="66" xadvance="81" page="0" chnl="15"/>
    <char id="1076" x="3527" y="2" width="100" height="129" xoffset="8" yoffset="66" xadvance="115" page="0" chnl="15"/>
    <char id="1077" x="3564" y="255" width="83" height="110" xoffset="8" yoffset="66" xadvance="98" page="0" chnl="15"/>
    <char id="1105" x="3629" y="2" width="83" height="145" xoffset="8" yoffset="31" xadvance="98" page="0" chnl="15"/>
    <char id="1078" x="3564" y="367" width="142" height="113" xoffset="8" yoffset="64" xadvance="155" page="0" chnl="15"/>
    <char id="1079" x="3649" y="149" width="77" height="111" xoffset="8" yoffset="65" xadvance="92" page="0" chnl="15"/>
    <char id="1080" x="3714" y="2" width="86" height="111" xoffset="8" yoffset="65" xadvance="101" page="0" chnl="15"/>
    <char id="1081" x="3708" y="262" width="86" height="148" xoffset="8" yoffset="28" xadvance="101" page="0" chnl="15"/>
    <char id="1082" x="3728" y="115" width="90" height="112" xoffset="8" yoffset="65" xadvance="105" page="0" chnl="15"/>
    <char id="1083" x="3802" y="2" width="91" height="110" xoffset="-1" yoffset="66" xadvance="89" page="0" chnl="15"/>
    <char id="1084" x="3895" y="2" width="123" height="110" xoffset="8" yoffset="66" xadvance="138" page="0" chnl="15"/>
    <char id="1085" x="3796" y="229" width="86" height="110" xoffset="8" yoffset="66" xadvance="101" page="0" chnl="15"/>
    <char id="1086" x="3820" y="114" width="86" height="110" xoffset="8" yoffset="66" xadvance="101" page="0" chnl="15"/>
    <char id="1087" x="3796" y="341" width="86" height="110" xoffset="8" yoffset="66" xadvance="101" page="0" chnl="15"/>
    <char id="1088" x="3908" y="114" width="86" height="141" xoffset="8" yoffset="65" xadvance="101" page="0" chnl="15"/>
    <char id="1089" x="3996" y="114" width="77" height="110" xoffset="8" yoffset="66" xadvance="92" page="0" chnl="15"/>
    <char id="1090" x="3996" y="226" width="90" height="111" xoffset="8" yoffset="65" xadvance="105" page="0" chnl="15"/>
    <char id="1091" x="3884" y="339" width="86" height="151" xoffset="8" yoffset="65" xadvance="101" page="0" chnl="15"/>
    <char id="1092" x="2" y="2" width="129" height="170" xoffset="8" yoffset="36" xadvance="144" page="0" chnl="15"/>
    <char id="1093" x="3972" y="339" width="92" height="112" xoffset="8" yoffset="65" xadvance="106" page="0" chnl="15"/>
    <char id="1094" x="2" y="2" width="94" height="129" xoffset="8" yoffset="66" xadvance="109" page="0" chnl="15"/>
    <char id="1095" x="2" y="2" width="86" height="111" xoffset="8" yoffset="65" xadvance="101" page="0" chnl="15"/>
    <char id="1096" x="2" y="2" width="121" height="110" xoffset="8" yoffset="66" xadvance="136" page="0" chnl="15"/>
    <char id="1097" x="2" y="2" width="131" height="129" xoffset="8" yoffset="66" xadvance="146" page="0" chnl="15"/>
    <char id="1100" x="2" y="2" width="86" height="110" xoffset="8" yoffset="66" xadvance="101" page="0" chnl="15"/>
    <char id="1099" x="2" y="2" width="120" height="110" xoffset="8" yoffset="66" xadvance="135" page="0" chnl="15"/>
    <char id="1098" x="2" y="2" width="102" height="111" xoffset="8" yoffset="65" xadvance="117" page="0" chnl="15"/>
    <char id="1101" x="2" y="2" width="77" height="111" xoffset="8" yoffset="65" xadvance="92" page="0" chnl="15"/>
    <char id="1102" x="2" y="2" width="125" height="110" xoffset="8" yoffset="66" xadvance="140" page="0" chnl="15"/>
    <char id="1103" x="2" y="2" width="91" height="111" xoffset="8" yoffset="65" xadvance="106" page="0" chnl="15"/>
    <char id="32" x="0" y="0" width="0" height="0" xoffset="8" yoffset="65" xadvance="31" page="0" chnl="15"/>
  </chars>
</font>